[{
    "nome": "José Henrique da silva",
    "cargo": "Analista",
    "pendente": true,    
    "id": "002879",
    "dt_admissao": "07/04/2017",
    "foto": "https://secure.gravatar.com/avatar/a55c31e9d183818bca0b83b4c301674e",
    "periodo_aquisitivo": "07/04/2017 a 06/04/2018",
    "periodo_fruicao": "01/12/2018 a 15/12/2018",
    "periodos": [     
      {
        "id":"000001",
        "ordem":1,
        "data_inicio": "07/04/2015",
        "data_termino": "06/04/2016",
        "st_adiantamento": false,
        "st_recebimento_13": false,
        "status": 3,
        "justificativa":""                      
      },
      {
        "id":"000002",
        "ordem":2,
        "data_inicio": "07/04/2016",
        "data_termino": "06/04/2017",
        "st_adiantamento": false,
        "st_recebimento_13": true,
        "status": 3,
        "justificativa":""                     
      },
      {
        "id":"000004",
        "ordem":3,
        "data_inicio": "07/04/2017",
        "data_termino": "06/04/2018",
        "st_adiantamento": true,
        "st_recebimento_13": true,
        "status": 3,
        "justificativa":""                     
      }
    ]
  },
  {
    "nome": "Mario de Souza",
    "cargo": "Gerente",
    "pendente": true,    
    "id": "001754",
    "dt_admissao": "07/04/2016",
    "foto": "https://secure.gravatar.com/avatar/205e460b479e2e5b48aec07710c08d50",
    "periodo_aquisitivo": "07/04/2017 a 06/04/2018",
    "periodo_fruicao": "01/12/2018 a 15/12/2018",
    "periodos": [
      {
        "id":"000005",
        "ordem":1,
        "data_inicio": "07/04/2016",
        "data_termino": "06/04/2017",
        "st_adiantamento": true,
        "st_recebimento_13": false,
        "status": 1,
        "justificativa":"Não estimatido"                       
      },
      {
        "id":"000006",
        "ordem":2,
        "data_inicio": "07/04/2017",
        "data_termino": "06/04/2018",
        "st_adiantamento": false,
        "st_recebimento_13": true,
        "status": 3,
        "justificativa":""               
      }
    ]    
  }, 
  {
    "nome": "Marcio de Lima",
    "cargo": "Diretor",
    "pendente": false,    
    "id": "000084",
    "dt_admissao": "07/04/2015",
    "foto": "http://globaltransformation.com/wp-content/uploads/2016/03/Richard-Branson-390x390.jpg",
    "periodo_aquisitivo": "07/04/2017 a 06/04/2018",
    "periodo_fruicao": "01/12/2018 a 15/12/2018",
    "periodos": [
      {
        "id":"000007",
        "ordem":1,
        "data_inicio": "07/04/2015",
        "data_termino": "06/04/2016",
        "st_adiantamento": false,
        "st_recebimento_13": true,
        "status": 1,
        "justificativa":"Ainda nao estimado."                
      },
      {
        "id":"000008",
        "ordem":2,
        "data_inicio": "07/04/2016",
        "data_termino": "06/04/2017",
        "st_adiantamento": true,
        "st_recebimento_13": true,
        "status": 2,
        "justificativa":"Ainda nao estimado."                
      },
      {
        "id":"000009",
        "ordem":3,
        "data_inicio": "07/04/2017",
        "data_termino": "06/04/2018",
        "st_adiantamento": true,
        "st_recebimento_13": false,
        "status": 2,
        "justificativa":"Ainda nao estimado."               
      }
    ]    
  },
  {
    "nome": "William Henry Gates III",
    "cargo": "CEO",
    "pendente": false,    
    "id": "000001",
    "dt_admissao": "03/01/1975",
    "foto": "https://pbs.twimg.com/profile_images/988775660163252226/XpgonN0X_400x400.jpg",
    "periodo_aquisitivo": "07/06/2017 a 06/06/2018",
    "periodo_fruicao": "15/12/2018 a 30/12/2018",
    "periodos": [
      {
        "id":"000010",
        "ordem":1,
        "data_inicio": "07/04/2014",
        "data_termino": "06/04/2015",
        "st_adiantamento": false,
        "st_recebimento_13": false,
        "status": 2,
        "justificativa":"Ainda nao estimado."                
      },
      {
        "id":"000011",
        "ordem":2,
        "data_inicio": "07/04/2015",
        "data_termino": "06/04/2016",
        "st_adiantamento": false,
        "st_recebimento_13": true,
        "status": 1,        
        "justificativa":"Ainda nao estimado."        
      },
      {
        "id":"000012",
        "ordem":3,
        "data_inicio": "07/04/2017",
        "data_termino": "06/04/2018",
        "st_adiantamento": true,
        "st_recebimento_13": false,
        "status": 1,
        "justificativa":"Ainda nao estimado."        
      }
    ]    
  }]
