{
    "Recebimentos_JSONArray": [
        {
            "BusinessUnitRecv": "ONS",
            "ReceiverId": "0000114744",
            "OnsTipo": "A",
            "OnsStsRecDsc": "Em Aprovação",
            "NfBrl": "",
            "NfBrlDate": "09\/20\/2018",
            "NfBrlId": "",
            "BusinessUnit": "",
            "VendorId": "0000006647",
            "Name1": "L8 NETWORKS LTDA",
            "CntrctId": "OTC-CS-102\/18",
            "OnsTipoCntrDsc": "Contrato Simplificado",
            "BuyerId": "HJ01654",
            "CntrctBeginDt": "08\/16\/2018",
            "CntrctExpireDt": "08\/15\/2019",
            "OnsDtAssinatura": "08\/16\/2018",
            "Objeto": "Extensão de Garantia Extreme",
            "OnsStsCntrDsc": "Aprovado para Compra",
            "AmtCntrctMax": 2.8293E+4,
            "AmtReleased": 2.8293E+4,
            "ResidualAmount": 0E+0,
            "BusinessUnitReq": "ONS",
            "ReqId": "0000011095",
            "OnsLicitacaoDsc": "COM LICITAÇÃO",
            "OnsMotivo": "",
            "TotalRecvAmt": 2.8293E+4,
            "PaidAmt": 0E+0,
            "AmtRemain": 0E+0,
            "OpridApprovedBy": "MJ01059",
            "AttachList": [
                {
                    "Attach": "",
                    "AttachSystemFile": "",
                    "AttachUserFile": "\/ONS\/Recebimentos\/ONS_NEXT_9_21_2018_1OS_100847.pdf",
                    "DownloadLink": "http:\/\/integrationnode.tstapi.ons.org.br\/appgestor\/v1\/anexos\/L09OUy9SZWNlYmltZW50b3MvT05TX05FWFRfOV8yMV8yMDE4XzFPU18xMDA4NDcucGRm"
                }
            ]
        },
        {
            "BusinessUnitRecv": "ONS",
            "ReceiverId": "0000114728",
            "OnsTipo": "O",
            "OnsStsRecDsc": "Cancelado",
            "NfBrl": "",
            "NfBrlDate": "09\/19\/2018",
            "NfBrlId": "",
            "BusinessUnit": "",
            "VendorId": "0000004546",
            "Name1": "EQUILIBRIUM MASSOTERAPIA LTDA",
            "CntrctId": "GPA-CT-042\/18",
            "OnsTipoCntrDsc": "Contrato",
            "BuyerId": "JS00158",
            "CntrctBeginDt": "06\/20\/2018",
            "CntrctExpireDt": "06\/19\/2020",
            "OnsDtAssinatura": "06\/20\/2018",
            "Objeto": "Shiatsu expresso ONS BSB",
            "OnsStsCntrDsc": "Aprovado para Compra",
            "AmtCntrctMax": 4.08E+5,
            "AmtReleased": 2.55E+4,
            "ResidualAmount": 0E+0,
            "BusinessUnitReq": "ONS",
            "ReqId": "0000010983",
            "OnsLicitacaoDsc": "COM LICITAÇÃO",
            "OnsMotivo": "",
            "TotalRecvAmt": 8.5E+3,
            "PaidAmt": 1.7E+4,
            "AmtRemain": 3.91E+5,
            "OpridApprovedBy": "MJ01059",
            "AttachList": [
                {
                    "Attach": "",
                    "AttachSystemFile": "",
                    "AttachUserFile": "\/ONS\/Recebimentos\/ONS_NEXT_9_20_2018_1OS_100825_EQUILIBRIUM.pdf",
                    "DownloadLink": "http:\/\/integrationnode.tstapi.ons.org.br\/appgestor\/v1\/anexos\/L09OUy9SZWNlYmltZW50b3MvT05TX05FWFRfOV8yMF8yMDE4XzFPU18xMDA4MjVfRVFVSUxJQlJJVU0ucGRm"
                }
            ]
        }
    ]
}