[{
  "valorCompromissado": "R$84615.35",
  "valorRemanescente": "R$19113.81",
  "unidade": "SNDX",
  "ID": 41160,
  "dataCriado": "29/11/2016",
  "expanded": false,
  "nRecebimento": 21306
},
{
  "valorCompromissado": "R$78966.75",
  "valorRemanescente": "R$74985.66",
  "unidade": "QGEN",
  "ID": 15642,
  "dataCriado": "21/10/2015",
  "expanded": false,
  "nRecebimento": 18547
}, {
  "valorCompromissado": "R$89787.55",
  "valorRemanescente": "R$51727.30",
  "unidade": "FIBK",
  "ID": 10776,
  "dataCriado": "06/10/2016",
  "expanded": false,
  "nRecebimento": 31878
}, {
  "valorCompromissado": "R$95879.82",
  "valorRemanescente": "R$22333.12",
  "unidade": "ABX",
  "ID": 47897,
  "dataCriado": "16/05/2017",
  "expanded": false,
  "nRecebimento": 36822
}, {
  "valorCompromissado": "R$22467.58",
  "valorRemanescente": "R$7799.09",
  "unidade": "LVNTA",
  "ID": 26498,
  "dataCriado": "31/07/2016",
  "expanded": false,
  "nRecebimento": 31380
}, {
  "valorCompromissado": "R$20334.45",
  "valorRemanescente": "R$33388.90",
  "unidade": "SRF",
  "ID": 21788,
  "dataCriado": "17/08/2017",
  "expanded": false,
  "nRecebimento": 2889
}, {
  "valorCompromissado": "R$39233.29",
  "valorRemanescente": "R$53780.86",
  "unidade": "CRWS",
  "ID": 23975,
  "dataCriado": "16/11/2015",
  "expanded": false,
  "nRecebimento": 17497
}, {
  "valorCompromissado": "R$17503.91",
  "valorRemanescente": "R$77435.75",
  "unidade": "ANCX",
  "ID": 31908,
  "dataCriado": "08/05/2018",
  "expanded": false,
  "nRecebimento": 38359
}, {
  "valorCompromissado": "R$15644.39",
  "valorRemanescente": "R$43460.00",
  "unidade": "ADX",
  "ID": 12228,
  "dataCriado": "29/12/2017",
  "expanded": false,
  "nRecebimento": 13659
}, {
  "valorCompromissado": "R$89947.03",
  "valorRemanescente": "R$95443.66",
  "unidade": "KRMA",
  "ID": 28398,
  "dataCriado": "06/08/2016",
  "expanded": false,
  "nRecebimento": 31462
}]
